<?xml version="1.0" encoding="UTF-8"?>
<glyph name="quotesinglbase" format="2">
	<advance width="232"/>
	<unicode hex="201A"/>
	<note>
		quotesinglbase
	</note>
	<outline>
		<contour>
			<point x="76" y="-98" type="curve" smooth="yes"/>
			<point x="141" y="62" type="line" smooth="yes"/>
			<point x="154" y="94"/>
			<point x="152" y="126"/>
			<point x="120" y="136" type="curve" smooth="yes"/>
			<point x="113" y="139"/>
			<point x="105" y="140"/>
			<point x="97" y="140" type="curve" smooth="yes"/>
			<point x="61" y="140"/>
			<point x="46" y="111"/>
			<point x="36" y="80" type="curve" smooth="yes"/>
			<point x="-12" y="-65" type="line" smooth="yes"/>
			<point x="-13" y="-69"/>
			<point x="-14" y="-75"/>
			<point x="-14" y="-80" type="curve" smooth="yes"/>
			<point x="-14" y="-106"/>
			<point x="7" y="-127"/>
			<point x="33" y="-127" type="curve" smooth="yes"/>
			<point x="52" y="-127"/>
			<point x="69" y="-115"/>
		</contour>
	</outline>
</glyph>
