<?xml version="1.0" encoding="UTF-8"?>
<glyph name="cdotaccent" format="2">
	<advance width="587"/>
	<unicode hex="010B"/>
	<note>
		cdotaccent
	</note>
	<outline>
		<contour>
			<point x="293" y="751" type="curve" smooth="yes"/>
			<point x="237" y="751"/>
			<point x="200" y="717"/>
			<point x="200" y="663" type="curve" smooth="yes"/>
			<point x="200" y="609"/>
			<point x="237" y="575"/>
			<point x="293" y="575" type="curve" smooth="yes"/>
			<point x="349" y="575"/>
			<point x="386" y="609"/>
			<point x="386" y="663" type="curve" smooth="yes"/>
			<point x="386" y="717"/>
			<point x="349" y="751"/>
		</contour>
		<contour>
			<point x="305" y="548" type="curve" smooth="yes"/>
			<point x="148" y="548"/>
			<point x="24" y="445"/>
			<point x="24" y="261" type="curve" smooth="yes"/>
			<point x="24" y="85"/>
			<point x="140" y="-14"/>
			<point x="293" y="-14" type="curve" smooth="yes"/>
			<point x="438" y="-14"/>
			<point x="545" y="58"/>
			<point x="565" y="196" type="curve"/>
			<point x="388" y="196" type="line"/>
			<point x="378" y="138"/>
			<point x="344" y="108"/>
			<point x="303" y="108" type="curve" smooth="yes"/>
			<point x="242" y="108"/>
			<point x="208" y="158"/>
			<point x="208" y="272" type="curve" smooth="yes"/>
			<point x="208" y="375"/>
			<point x="241" y="426"/>
			<point x="301" y="426" type="curve" smooth="yes"/>
			<point x="346" y="426"/>
			<point x="381" y="400"/>
			<point x="389" y="330" type="curve"/>
			<point x="563" y="330" type="line"/>
			<point x="558" y="450"/>
			<point x="462" y="548"/>
		</contour>
	</outline>
</glyph>
