<?xml version="1.0" encoding="UTF-8"?>
<glyph name="Eacute_E" format="2">
	<advance width="956"/>
	<unicode hex="F1820"/>
	<outline>
		<contour>
			<point x="286" y="735" type="line"/>
			<point x="382" y="735" type="line"/>
			<point x="537" y="860" type="line"/>
			<point x="377" y="860" type="line"/>
		</contour>
		<contour>
			<point x="80" y="0" type="line"/>
			<point x="926" y="0" type="line"/>
			<point x="926" y="140" type="line"/>
			<point x="577" y="140" type="line"/>
			<point x="577" y="276" type="line"/>
			<point x="896" y="276" type="line"/>
			<point x="896" y="416" type="line"/>
			<point x="577" y="416" type="line"/>
			<point x="577" y="550" type="line"/>
			<point x="916" y="550" type="line"/>
			<point x="916" y="690" type="line"/>
			<point x="80" y="690" type="line"/>
		</contour>
		<contour>
			<point x="260" y="140" type="line"/>
			<point x="260" y="276" type="line"/>
			<point x="397" y="276" type="line"/>
			<point x="397" y="140" type="line"/>
		</contour>
		<contour>
			<point x="260" y="416" type="line"/>
			<point x="260" y="550" type="line"/>
			<point x="397" y="550" type="line"/>
			<point x="397" y="416" type="line"/>
		</contour>
	</outline>
	<lib>
		<dict>
			<key>com.schriftgestaltung.Glyphs.leftMetricsKey</key>
			<string>Eacute</string>
			<key>com.schriftgestaltung.Glyphs.rightMetricsKey</key>
			<string>E</string>
		</dict>
	</lib>
</glyph>
