<?xml version="1.0" encoding="UTF-8"?>
<glyph name="Edieresis" format="2">
	<advance width="639"/>
	<unicode hex="00CB"/>
	<note>
		Edieresis
	</note>
	<outline>
		<contour>
			<point x="609" y="0" type="line"/>
			<point x="609" y="140" type="line"/>
			<point x="260" y="140" type="line"/>
			<point x="260" y="276" type="line"/>
			<point x="579" y="276" type="line"/>
			<point x="579" y="416" type="line"/>
			<point x="260" y="416" type="line"/>
			<point x="260" y="550" type="line"/>
			<point x="599" y="550" type="line"/>
			<point x="599" y="690" type="line"/>
			<point x="80" y="690" type="line"/>
			<point x="80" y="0" type="line"/>
		</contour>
		<contour>
			<point x="164" y="869" type="line"/>
			<point x="164" y="722" type="line"/>
			<point x="314" y="722" type="line"/>
			<point x="314" y="869" type="line"/>
		</contour>
		<contour>
			<point x="365" y="869" type="line"/>
			<point x="365" y="722" type="line"/>
			<point x="515" y="722" type="line"/>
			<point x="515" y="869" type="line"/>
		</contour>
	</outline>
</glyph>
