<?xml version="1.0" encoding="UTF-8"?>
<glyph name="guillemotright" format="2">
	<advance width="536"/>
	<unicode hex="00BB"/>
	<note>
		guillemotright
	</note>
	<outline>
		<contour>
			<point x="82" y="82" type="line"/>
			<point x="254" y="248" type="line"/>
			<point x="153" y="414" type="line"/>
			<point x="97" y="414" type="line"/>
			<point x="198" y="248" type="line"/>
			<point x="26" y="82" type="line"/>
		</contour>
		<contour>
			<point x="233" y="82" type="line"/>
			<point x="405" y="248" type="line"/>
			<point x="304" y="414" type="line"/>
			<point x="248" y="414" type="line"/>
			<point x="349" y="248" type="line"/>
			<point x="177" y="82" type="line"/>
		</contour>
	</outline>
</glyph>
