<?xml version="1.0" encoding="UTF-8"?>
<glyph name="n_n_e" format="2">
	<advance width="1357"/>
	<unicode hex="F3750"/>
	<outline>
		<contour>
			<point x="1382" y="496" type="curve" smooth="yes"/>
			<point x="1411" y="634"/>
			<point x="1350" y="770"/>
			<point x="1172" y="770" type="curve" smooth="yes"/>
			<point x="1109" y="770"/>
			<point x="1050" y="754"/>
			<point x="1001" y="726" type="curve"/>
			<point x="974" y="755"/>
			<point x="931" y="770"/>
			<point x="871" y="770" type="curve" smooth="yes"/>
			<point x="845" y="770"/>
			<point x="822" y="767"/>
			<point x="800" y="761" type="curve" smooth="yes"/>
			<point x="758" y="750"/>
			<point x="734" y="727"/>
			<point x="704" y="695" type="curve" smooth="yes"/>
			<point x="683" y="673" type="line"/>
			<point x="685" y="721"/>
			<point x="648" y="766"/>
			<point x="594" y="766" type="curve" smooth="yes"/>
			<point x="550" y="766"/>
			<point x="515" y="735"/>
			<point x="507" y="695" type="curve" smooth="yes"/>
			<point x="476" y="548" type="line"/>
			<point x="462" y="548" type="line" smooth="yes"/>
			<point x="436" y="548"/>
			<point x="413" y="545"/>
			<point x="391" y="539" type="curve" smooth="yes"/>
			<point x="349" y="528"/>
			<point x="325" y="505"/>
			<point x="295" y="473" type="curve" smooth="yes"/>
			<point x="274" y="451" type="line"/>
			<point x="276" y="499"/>
			<point x="239" y="544"/>
			<point x="185" y="544" type="curve" smooth="yes"/>
			<point x="141" y="544"/>
			<point x="106" y="513"/>
			<point x="98" y="473" type="curve" smooth="yes"/>
			<point x="19" y="97" type="line" smooth="yes"/>
			<point x="18" y="92"/>
			<point x="17" y="85"/>
			<point x="17" y="79" type="curve" smooth="yes"/>
			<point x="17" y="30"/>
			<point x="56" y="-9"/>
			<point x="105" y="-9" type="curve" smooth="yes"/>
			<point x="147" y="-9"/>
			<point x="183" y="21"/>
			<point x="191" y="61" type="curve" smooth="yes"/>
			<point x="231" y="252" type="line" smooth="yes"/>
			<point x="257" y="373"/>
			<point x="307" y="426"/>
			<point x="362" y="426" type="curve" smooth="yes"/>
			<point x="416" y="426"/>
			<point x="438" y="396"/>
			<point x="431" y="345" type="curve" smooth="yes"/>
			<point x="427" y="318"/>
			<point x="421" y="289"/>
			<point x="417" y="272" type="curve" smooth="yes"/>
			<point x="380" y="97" type="line" smooth="yes"/>
			<point x="379" y="92"/>
			<point x="378" y="85"/>
			<point x="378" y="79" type="curve" smooth="yes"/>
			<point x="378" y="30"/>
			<point x="418" y="-9"/>
			<point x="467" y="-9" type="curve" smooth="yes"/>
			<point x="509" y="-9"/>
			<point x="545" y="21"/>
			<point x="553" y="61" type="curve" smooth="yes"/>
			<point x="640" y="474" type="line" smooth="yes"/>
			<point x="666" y="595"/>
			<point x="716" y="648"/>
			<point x="771" y="648" type="curve" smooth="yes"/>
			<point x="825" y="648"/>
			<point x="847" y="618"/>
			<point x="840" y="567" type="curve" smooth="yes"/>
			<point x="836" y="540"/>
			<point x="829" y="512"/>
			<point x="827" y="494" type="curve" smooth="yes"/>
			<point x="824" y="468" type="line" smooth="yes"/>
			<point x="798" y="318"/>
			<point x="869" y="234"/>
			<point x="988" y="212" type="curve" smooth="yes"/>
			<point x="1026" y="205"/>
			<point x="1067" y="233"/>
			<point x="1067" y="277" type="curve" smooth="yes"/>
			<point x="1067" y="303"/>
			<point x="1052" y="327"/>
			<point x="1031" y="338" type="curve" smooth="yes"/>
			<point x="1003" y="352"/>
			<point x="989" y="383"/>
			<point x="996" y="444" type="curve"/>
			<point x="1284" y="444" type="line" smooth="yes"/>
			<point x="1340" y="444"/>
			<point x="1382" y="496"/>
		</contour>
		<contour>
			<point x="1025" y="554" type="line"/>
			<point x="1051" y="620"/>
			<point x="1090" y="648"/>
			<point x="1137" y="648" type="curve" smooth="yes"/>
			<point x="1185" y="648"/>
			<point x="1210" y="617"/>
			<point x="1206" y="554" type="curve"/>
		</contour>
	</outline>
	<lib>
		<dict>
			<key>com.schriftgestaltung.Glyphs.leftMetricsKey</key>
			<string>n</string>
			<key>com.schriftgestaltung.Glyphs.rightMetricsKey</key>
			<string>e</string>
		</dict>
	</lib>
</glyph>
