<?xml version="1.0" encoding="UTF-8"?>
<glyph name="Agrave" format="2">
	<advance width="707"/>
	<unicode hex="00C0"/>
	<note>
		Agrave
	</note>
	<outline>
		<contour>
			<point x="297" y="740"/>
			<point x="327" y="729" type="curve" smooth="yes"/>
			<point x="331" y="727"/>
			<point x="337" y="726"/>
			<point x="343" y="726" type="curve" smooth="yes"/>
			<point x="367" y="726"/>
			<point x="388" y="746"/>
			<point x="388" y="771" type="curve" smooth="yes"/>
			<point x="388" y="780"/>
			<point x="384" y="790"/>
			<point x="379" y="797" type="curve" smooth="yes"/>
			<point x="348" y="839"/>
			<point x="282" y="863"/>
			<point x="274" y="807" type="curve" smooth="yes"/>
			<point x="273" y="803"/>
			<point x="273" y="800"/>
			<point x="273" y="797" type="curve" smooth="yes"/>
			<point x="273" y="766"/>
		</contour>
		<contour>
			<point x="253" y="179" type="line"/>
			<point x="468" y="179" type="line"/>
			<point x="508" y="54" type="line" smooth="yes"/>
			<point x="520" y="18"/>
			<point x="555" y="-9"/>
			<point x="595" y="-9" type="curve" smooth="yes"/>
			<point x="646" y="-9"/>
			<point x="687" y="32"/>
			<point x="687" y="82" type="curve" smooth="yes"/>
			<point x="687" y="93"/>
			<point x="684" y="103"/>
			<point x="681" y="113" type="curve" smooth="yes"/>
			<point x="500" y="614" type="line" smooth="yes"/>
			<point x="481" y="665"/>
			<point x="447" y="690"/>
			<point x="392" y="690" type="curve" smooth="yes"/>
			<point x="334" y="690" type="line" smooth="yes"/>
			<point x="279" y="690"/>
			<point x="245" y="665"/>
			<point x="226" y="614" type="curve" smooth="yes"/>
			<point x="44" y="110" type="line" smooth="yes"/>
			<point x="41" y="101"/>
			<point x="38" y="91"/>
			<point x="38" y="80" type="curve" smooth="yes"/>
			<point x="38" y="31"/>
			<point x="78" y="-9"/>
			<point x="127" y="-9" type="curve" smooth="yes"/>
			<point x="167" y="-9"/>
			<point x="201" y="18"/>
			<point x="212" y="53" type="curve" smooth="yes"/>
		</contour>
		<contour>
			<point x="297" y="319" type="line"/>
			<point x="361" y="531" type="line"/>
			<point x="425" y="319" type="line"/>
		</contour>
	</outline>
</glyph>
