<?xml version="1.0" encoding="UTF-8"?>
<glyph name="aacute" format="2">
	<advance width="587"/>
	<unicode hex="00E1"/>
	<note>
		aacute
	</note>
	<outline>
		<contour>
			<point x="310" y="562"/>
			<point x="311" y="563" type="curve" smooth="yes"/>
			<point x="385" y="635"/>
			<point x="420" y="710"/>
			<point x="369" y="705" type="curve" smooth="yes"/>
			<point x="367" y="705"/>
			<point x="365" y="704"/>
			<point x="363" y="704" type="curve" smooth="yes"/>
			<point x="316" y="693"/>
			<point x="277" y="658"/>
			<point x="271" y="611" type="curve" smooth="yes"/>
			<point x="270" y="607"/>
			<point x="270" y="604"/>
			<point x="270" y="601" type="curve" smooth="yes"/>
			<point x="270" y="580"/>
			<point x="288" y="562"/>
			<point x="310" y="562" type="curve"/>
			<point x="310" y="562"/>
		</contour>
		<contour>
			<point x="355" y="78" type="curve"/>
			<point x="357" y="67" type="line" smooth="yes"/>
			<point x="363" y="25"/>
			<point x="400" y="-9"/>
			<point x="445" y="-9" type="curve" smooth="yes"/>
			<point x="499" y="-9"/>
			<point x="537" y="38"/>
			<point x="534" y="85" type="curve" smooth="yes"/>
			<point x="533" y="103"/>
			<point x="533" y="119"/>
			<point x="533" y="135" type="curve" smooth="yes"/>
			<point x="533" y="285" type="line" smooth="yes"/>
			<point x="533" y="318"/>
			<point x="532" y="349"/>
			<point x="530" y="376" type="curve" smooth="yes"/>
			<point x="522" y="473"/>
			<point x="464" y="548"/>
			<point x="295" y="548" type="curve" smooth="yes"/>
			<point x="215" y="548"/>
			<point x="143" y="523"/>
			<point x="97" y="474" type="curve" smooth="yes"/>
			<point x="84" y="459"/>
			<point x="76" y="440"/>
			<point x="76" y="419" type="curve" smooth="yes"/>
			<point x="76" y="374"/>
			<point x="112" y="337"/>
			<point x="157" y="337" type="curve" smooth="yes"/>
			<point x="190" y="337"/>
			<point x="215" y="360"/>
			<point x="227" y="388" type="curve" smooth="yes"/>
			<point x="238" y="414"/>
			<point x="258" y="426"/>
			<point x="287" y="426" type="curve" smooth="yes"/>
			<point x="326" y="426"/>
			<point x="348" y="402"/>
			<point x="351" y="375" type="curve" smooth="yes"/>
			<point x="353" y="358"/>
			<point x="353" y="347"/>
			<point x="353" y="336" type="curve" smooth="yes"/>
			<point x="353" y="328" type="line"/>
			<point x="319" y="328" type="line" smooth="yes"/>
			<point x="138" y="328"/>
			<point x="30" y="258"/>
			<point x="30" y="144" type="curve" smooth="yes"/>
			<point x="30" y="41"/>
			<point x="113" y="-14"/>
			<point x="201" y="-14" type="curve" smooth="yes"/>
			<point x="226" y="-14"/>
			<point x="250" y="-11"/>
			<point x="272" y="-5" type="curve" smooth="yes"/>
			<point x="318" y="8"/>
			<point x="339" y="38"/>
		</contour>
		<contour>
			<point x="275" y="108" type="curve" smooth="yes"/>
			<point x="239" y="108"/>
			<point x="214" y="126"/>
			<point x="214" y="158" type="curve" smooth="yes"/>
			<point x="214" y="211"/>
			<point x="272" y="232"/>
			<point x="353" y="226" type="curve"/>
			<point x="353" y="191" type="line" smooth="yes"/>
			<point x="353" y="135"/>
			<point x="311" y="108"/>
		</contour>
	</outline>
</glyph>
