<?xml version="1.0" encoding="UTF-8"?>
<glyph name="eacute" format="2">
	<advance width="601"/>
	<unicode hex="00E9"/>
	<note>
		eacute
	</note>
	<outline>
		<contour>
			<point x="319" y="562"/>
			<point x="320" y="563" type="curve" smooth="yes"/>
			<point x="394" y="635"/>
			<point x="429" y="710"/>
			<point x="378" y="705" type="curve" smooth="yes"/>
			<point x="376" y="705"/>
			<point x="374" y="704"/>
			<point x="372" y="704" type="curve" smooth="yes"/>
			<point x="325" y="693"/>
			<point x="286" y="658"/>
			<point x="280" y="611" type="curve" smooth="yes"/>
			<point x="279" y="607"/>
			<point x="279" y="604"/>
			<point x="279" y="601" type="curve" smooth="yes"/>
			<point x="279" y="580"/>
			<point x="297" y="562"/>
			<point x="319" y="562" type="curve"/>
			<point x="319" y="562"/>
		</contour>
		<contour>
			<point x="577" y="274" type="curve" smooth="yes"/>
			<point x="577" y="412"/>
			<point x="487" y="548"/>
			<point x="309" y="548" type="curve" smooth="yes"/>
			<point x="131" y="548"/>
			<point x="24" y="421"/>
			<point x="24" y="265" type="curve" smooth="yes"/>
			<point x="24" y="77"/>
			<point x="146" y="-14"/>
			<point x="299" y="-14" type="curve" smooth="yes"/>
			<point x="380" y="-14"/>
			<point x="447" y="10"/>
			<point x="496" y="55" type="curve" smooth="yes"/>
			<point x="510" y="69"/>
			<point x="520" y="89"/>
			<point x="520" y="111" type="curve" smooth="yes"/>
			<point x="520" y="153"/>
			<point x="486" y="188"/>
			<point x="443" y="188" type="curve" smooth="yes"/>
			<point x="415" y="188"/>
			<point x="391" y="171"/>
			<point x="378" y="147" type="curve" smooth="yes"/>
			<point x="364" y="121"/>
			<point x="338" y="108"/>
			<point x="301" y="108" type="curve" smooth="yes"/>
			<point x="250" y="108"/>
			<point x="211" y="133"/>
			<point x="202" y="222" type="curve"/>
			<point x="482" y="222" type="line" smooth="yes"/>
			<point x="542" y="222"/>
			<point x="577" y="274"/>
		</contour>
		<contour>
			<point x="300" y="426" type="curve" smooth="yes"/>
			<point x="348" y="426"/>
			<point x="379" y="395"/>
			<point x="389" y="332" type="curve"/>
			<point x="208" y="332" type="line"/>
			<point x="220" y="398"/>
			<point x="253" y="426"/>
		</contour>
	</outline>
</glyph>
