<?xml version="1.0" encoding="UTF-8"?>
<glyph name="f" format="2">
	<advance width="378"/>
	<unicode hex="0066"/>
	<note>
		f
	</note>
	<outline>
		<contour>
			<point x="257" y="574" type="curve" smooth="yes"/>
			<point x="261" y="608"/>
			<point x="286" y="627"/>
			<point x="328" y="631" type="curve" smooth="yes"/>
			<point x="359" y="634"/>
			<point x="384" y="661"/>
			<point x="384" y="693" type="curve" smooth="yes"/>
			<point x="384" y="726"/>
			<point x="357" y="752"/>
			<point x="325" y="754" type="curve" smooth="yes"/>
			<point x="314" y="754" type="line" smooth="yes"/>
			<point x="149" y="754"/>
			<point x="85" y="692"/>
			<point x="77" y="592" type="curve" smooth="yes"/>
			<point x="76" y="574"/>
			<point x="76" y="550"/>
			<point x="76" y="534" type="curve" smooth="yes"/>
			<point x="76" y="530" type="line"/>
			<point x="66" y="530" type="line" smooth="yes"/>
			<point x="35" y="530"/>
			<point x="10" y="505"/>
			<point x="10" y="474" type="curve" smooth="yes"/>
			<point x="10" y="443"/>
			<point x="35" y="418"/>
			<point x="66" y="418" type="curve" smooth="yes"/>
			<point x="76" y="418" type="line"/>
			<point x="76" y="81" type="line" smooth="yes"/>
			<point x="76" y="32"/>
			<point x="116" y="-9"/>
			<point x="166" y="-9" type="curve" smooth="yes"/>
			<point x="216" y="-9"/>
			<point x="256" y="32"/>
			<point x="256" y="81" type="curve" smooth="yes"/>
			<point x="256" y="418" type="line"/>
			<point x="311" y="418" type="line" smooth="yes"/>
			<point x="346" y="418"/>
			<point x="365" y="442"/>
			<point x="365" y="485" type="curve" smooth="yes"/>
			<point x="365" y="515"/>
			<point x="341" y="539"/>
			<point x="311" y="539" type="curve" smooth="yes"/>
			<point x="295" y="539"/>
			<point x="266" y="545"/>
			<point x="256" y="534" type="curve"/>
			<point x="256" y="547"/>
			<point x="256" y="560"/>
		</contour>
	</outline>
</glyph>
