<?xml version="1.0" encoding="UTF-8"?>
<glyph name="OE" format="2">
	<advance width="1135"/>
	<unicode hex="0152"/>
	<note>
		OE
	</note>
	<outline>
		<contour>
			<point x="1082" y="140"/>
			<point x="1044" y="140" type="curve" smooth="yes"/>
			<point x="756" y="140" type="line"/>
			<point x="756" y="276" type="line"/>
			<point x="1014" y="276" type="line" smooth="yes"/>
			<point x="1052" y="276"/>
			<point x="1084" y="307"/>
			<point x="1084" y="346" type="curve" smooth="yes"/>
			<point x="1084" y="385"/>
			<point x="1052" y="416"/>
			<point x="1014" y="416" type="curve" smooth="yes"/>
			<point x="756" y="416" type="line"/>
			<point x="756" y="550" type="line"/>
			<point x="1034" y="550" type="line" smooth="yes"/>
			<point x="1072" y="550"/>
			<point x="1104" y="581"/>
			<point x="1104" y="620" type="curve" smooth="yes"/>
			<point x="1104" y="659"/>
			<point x="1072" y="690"/>
			<point x="1034" y="690" type="curve" smooth="yes"/>
			<point x="671" y="690" type="line" smooth="yes"/>
			<point x="610" y="690"/>
			<point x="576" y="656"/>
			<point x="576" y="595" type="curve" smooth="yes"/>
			<point x="576" y="588" type="line"/>
			<point x="560" y="622" type="line" smooth="yes"/>
			<point x="549" y="646"/>
			<point x="532" y="670"/>
			<point x="490" y="687" type="curve" smooth="yes"/>
			<point x="458" y="700"/>
			<point x="422" y="704"/>
			<point x="367" y="704" type="curve" smooth="yes"/>
			<point x="192" y="704"/>
			<point x="54" y="567"/>
			<point x="54" y="345" type="curve" smooth="yes"/>
			<point x="54" y="124"/>
			<point x="192" y="-14"/>
			<point x="367" y="-14" type="curve" smooth="yes"/>
			<point x="424" y="-14"/>
			<point x="460" y="-10"/>
			<point x="491" y="4" type="curve" smooth="yes"/>
			<point x="533" y="22"/>
			<point x="552" y="52"/>
			<point x="571" y="92" type="curve" smooth="yes"/>
			<point x="576" y="103" type="line"/>
			<point x="576" y="52" type="line" smooth="yes"/>
			<point x="576" y="19"/>
			<point x="610" y="0"/>
			<point x="671" y="0" type="curve" smooth="yes"/>
			<point x="1044" y="0" type="line" smooth="yes"/>
			<point x="1082" y="0"/>
			<point x="1114" y="31"/>
			<point x="1114" y="70" type="curve" smooth="yes"/>
			<point x="1114" y="109"/>
		</contour>
		<contour>
			<point x="407" y="118" type="curve" smooth="yes"/>
			<point x="303" y="118"/>
			<point x="238" y="199"/>
			<point x="238" y="345" type="curve" smooth="yes"/>
			<point x="238" y="492"/>
			<point x="303" y="572"/>
			<point x="407" y="572" type="curve" smooth="yes"/>
			<point x="511" y="572"/>
			<point x="576" y="492"/>
			<point x="576" y="345" type="curve" smooth="yes"/>
			<point x="576" y="199"/>
			<point x="511" y="118"/>
		</contour>
	</outline>
</glyph>
