<?xml version="1.0" encoding="UTF-8"?>
<glyph name="tcaron" format="2">
	<advance width="395"/>
	<unicode hex="0165"/>
	<note>
		tcaron
	</note>
	<outline>
		<contour>
			<point x="491" y="730" type="curve" smooth="yes"/>
			<point x="491" y="733"/>
			<point x="477" y="735"/>
			<point x="451" y="735" type="curve" smooth="yes"/>
			<point x="375" y="735"/>
			<point x="313" y="672"/>
			<point x="314" y="602" type="curve" smooth="yes"/>
			<point x="314" y="592" type="line" smooth="yes"/>
			<point x="314" y="567"/>
			<point x="335" y="547"/>
			<point x="359" y="547" type="curve" smooth="yes"/>
			<point x="376" y="547"/>
			<point x="390" y="556"/>
			<point x="398" y="569" type="curve" smooth="yes"/>
			<point x="459" y="671" type="line" smooth="yes"/>
			<point x="482" y="710"/>
			<point x="491" y="727"/>
		</contour>
		<contour>
			<point x="341" y="530" type="curve" smooth="yes"/>
			<point x="270" y="530" type="line"/>
			<point x="270" y="587" type="line" smooth="yes"/>
			<point x="270" y="636"/>
			<point x="230" y="677"/>
			<point x="180" y="677" type="curve" smooth="yes"/>
			<point x="130" y="677"/>
			<point x="90" y="636"/>
			<point x="90" y="587" type="curve" smooth="yes"/>
			<point x="90" y="530" type="line"/>
			<point x="52" y="530" type="line" smooth="yes"/>
			<point x="21" y="530"/>
			<point x="-4" y="505"/>
			<point x="-4" y="474" type="curve" smooth="yes"/>
			<point x="-4" y="443"/>
			<point x="21" y="418"/>
			<point x="52" y="418" type="curve" smooth="yes"/>
			<point x="90" y="418" type="line"/>
			<point x="90" y="195" type="line" smooth="yes"/>
			<point x="90" y="165"/>
			<point x="90" y="140"/>
			<point x="92" y="109" type="curve" smooth="yes"/>
			<point x="98" y="27"/>
			<point x="138" y="-14"/>
			<point x="271" y="-14" type="curve" smooth="yes"/>
			<point x="292" y="-14"/>
			<point x="311" y="-13"/>
			<point x="332" y="-11" type="curve" smooth="yes"/>
			<point x="362" y="-8"/>
			<point x="386" y="17"/>
			<point x="386" y="48" type="curve" smooth="yes"/>
			<point x="386" y="79"/>
			<point x="361" y="105"/>
			<point x="331" y="107" type="curve" smooth="yes"/>
			<point x="285" y="111"/>
			<point x="274" y="128"/>
			<point x="271" y="169" type="curve" smooth="yes"/>
			<point x="270" y="183"/>
			<point x="270" y="203"/>
			<point x="270" y="221" type="curve" smooth="yes"/>
			<point x="270" y="418" type="line"/>
			<point x="341" y="418" type="line" smooth="yes"/>
			<point x="372" y="418"/>
			<point x="397" y="443"/>
			<point x="397" y="474" type="curve" smooth="yes"/>
			<point x="397" y="505"/>
			<point x="372" y="530"/>
		</contour>
	</outline>
</glyph>
