<?xml version="1.0" encoding="UTF-8"?>
<glyph name="uF1950" format="2">
	<advance width="884"/>
	<unicode hex="F1950"/>
	<outline>
		<contour>
			<point x="300" y="426" type="curve" smooth="yes"/>
			<point x="338" y="426"/>
			<point x="365" y="407"/>
			<point x="380" y="367" type="curve"/>
			<point x="381" y="362"/>
			<point x="383" y="357"/>
			<point x="385" y="352" type="curve" smooth="yes"/>
			<point x="387" y="346"/>
			<point x="388" y="339"/>
			<point x="389" y="332" type="curve"/>
			<point x="208" y="332" type="line"/>
			<point x="220" y="398"/>
			<point x="253" y="426"/>
		</contour>
		<contour>
			<point x="24" y="265" type="curve" smooth="yes"/>
			<point x="24" y="77"/>
			<point x="146" y="-14"/>
			<point x="299" y="-14" type="curve" smooth="yes"/>
			<point x="380" y="-14"/>
			<point x="447" y="10"/>
			<point x="496" y="55" type="curve" smooth="yes"/>
			<point x="510" y="69"/>
			<point x="520" y="89"/>
			<point x="520" y="111" type="curve" smooth="yes"/>
			<point x="520" y="153"/>
			<point x="486" y="188"/>
			<point x="443" y="188" type="curve" smooth="yes"/>
			<point x="415" y="188"/>
			<point x="391" y="171"/>
			<point x="378" y="147" type="curve" smooth="yes"/>
			<point x="364" y="121"/>
			<point x="338" y="108"/>
			<point x="301" y="108" type="curve" smooth="yes"/>
			<point x="250" y="108"/>
			<point x="211" y="133"/>
			<point x="202" y="222" type="curve"/>
			<point x="576" y="222" type="line"/>
			<point x="594" y="220"/>
			<point x="612" y="219"/>
			<point x="632" y="219" type="curve" smooth="yes"/>
			<point x="761" y="219"/>
			<point x="868" y="272"/>
			<point x="868" y="386" type="curve" smooth="yes"/>
			<point x="868" y="489"/>
			<point x="799" y="531"/>
			<point x="702" y="555" type="curve" smooth="yes"/>
			<point x="600" y="580"/>
			<point x="576" y="600"/>
			<point x="576" y="630" type="curve" smooth="yes"/>
			<point x="576" y="653"/>
			<point x="594" y="669"/>
			<point x="619" y="669" type="curve" smooth="yes"/>
			<point x="640" y="669"/>
			<point x="655" y="660"/>
			<point x="665" y="640" type="curve" smooth="yes"/>
			<point x="677" y="616"/>
			<point x="702" y="601"/>
			<point x="730" y="601" type="curve" smooth="yes"/>
			<point x="771" y="601"/>
			<point x="804" y="634"/>
			<point x="804" y="674" type="curve" smooth="yes"/>
			<point x="804" y="699"/>
			<point x="795" y="724"/>
			<point x="777" y="738" type="curve" smooth="yes"/>
			<point x="741" y="766"/>
			<point x="691" y="781"/>
			<point x="630" y="781" type="curve" smooth="yes"/>
			<point x="488" y="781"/>
			<point x="396" y="715"/>
			<point x="396" y="609" type="curve" smooth="yes"/>
			<point x="396" y="577"/>
			<point x="404" y="550"/>
			<point x="418" y="528" type="curve"/>
			<point x="386" y="541"/>
			<point x="350" y="548"/>
			<point x="309" y="548" type="curve" smooth="yes"/>
			<point x="131" y="548"/>
			<point x="24" y="421"/>
		</contour>
		<contour>
			<point x="511" y="461" type="curve"/>
			<point x="526" y="456"/>
			<point x="542" y="451"/>
			<point x="559" y="447" type="curve" smooth="yes"/>
			<point x="654" y="425"/>
			<point x="688" y="406"/>
			<point x="688" y="372" type="curve" smooth="yes"/>
			<point x="688" y="344"/>
			<point x="663" y="331"/>
			<point x="631" y="331" type="curve" smooth="yes"/>
			<point x="598" y="331"/>
			<point x="574" y="348"/>
			<point x="558" y="380" type="curve"/>
			<point x="547" y="410"/>
			<point x="532" y="437"/>
		</contour>
	</outline>
	<lib>
		<dict>
			<key>com.schriftgestaltung.Glyphs.leftMetricsKey</key>
			<string>e</string>
			<key>com.schriftgestaltung.Glyphs.rightMetricsKey</key>
			<string>s</string>
		</dict>
	</lib>
</glyph>
