<?xml version="1.0" encoding="UTF-8"?>
<glyph name="c" format="2">
	<advance width="544"/>
	<unicode hex="0063"/>
	<note>
		c
	</note>
	<outline>
		<contour>
			<point x="346" y="545" type="curve" smooth="yes"/>
			<point x="207" y="545"/>
			<point x="67" y="444"/>
			<point x="29" y="263" type="curve" smooth="yes"/>
			<point x="-12" y="74"/>
			<point x="75" y="-14"/>
			<point x="214" y="-14" type="curve" smooth="yes"/>
			<point x="312" y="-14"/>
			<point x="397" y="24"/>
			<point x="455" y="105" type="curve" smooth="yes"/>
			<point x="461" y="113"/>
			<point x="464" y="122"/>
			<point x="464" y="133" type="curve" smooth="yes"/>
			<point x="464" y="160"/>
			<point x="442" y="182"/>
			<point x="415" y="182" type="curve" smooth="yes"/>
			<point x="396" y="182"/>
			<point x="380" y="172"/>
			<point x="372" y="156" type="curve" smooth="yes"/>
			<point x="340" y="96"/>
			<point x="293" y="66"/>
			<point x="237" y="66" type="curve" smooth="yes"/>
			<point x="163" y="66"/>
			<point x="116" y="127"/>
			<point x="146" y="271" type="curve" smooth="yes"/>
			<point x="175" y="404"/>
			<point x="249" y="465"/>
			<point x="326" y="465" type="curve" smooth="yes"/>
			<point x="378" y="465"/>
			<point x="411" y="441"/>
			<point x="421" y="388" type="curve" smooth="yes"/>
			<point x="426" y="361"/>
			<point x="449" y="341"/>
			<point x="477" y="341" type="curve" smooth="yes"/>
			<point x="512" y="341"/>
			<point x="539" y="374"/>
			<point x="533" y="408" type="curve" smooth="yes"/>
			<point x="518" y="492"/>
			<point x="454" y="545"/>
		</contour>
	</outline>
</glyph>
