<?xml version="1.0" encoding="UTF-8"?>
<glyph name="minus" format="2">
	<advance width="601"/>
	<unicode hex="2212"/>
	<note>
		minus
	</note>
	<outline>
		<contour>
			<point x="126" y="286" type="curve" smooth="yes"/>
			<point x="497" y="286" type="line" smooth="yes"/>
			<point x="515" y="286"/>
			<point x="530" y="301"/>
			<point x="530" y="319" type="curve" smooth="yes"/>
			<point x="530" y="337"/>
			<point x="515" y="352"/>
			<point x="497" y="352" type="curve" smooth="yes"/>
			<point x="126" y="352" type="line" smooth="yes"/>
			<point x="108" y="352"/>
			<point x="93" y="337"/>
			<point x="93" y="319" type="curve" smooth="yes"/>
			<point x="93" y="301"/>
			<point x="108" y="286"/>
		</contour>
	</outline>
</glyph>
