<?xml version="1.0" encoding="UTF-8"?>
<glyph name="uF4880" format="2">
	<advance width="1128"/>
	<unicode hex="F4880"/>
	<outline>
		<contour>
			<point x="451" y="603" type="line"/>
			<point x="695" y="603" type="line"/>
			<point x="567" y="0" type="line"/>
			<point x="517" y="-235" type="line" smooth="yes"/>
			<point x="509" y="-274"/>
			<point x="529" y="-298"/>
			<point x="569" y="-298" type="curve" smooth="yes"/>
			<point x="951" y="-298" type="line" smooth="yes"/>
			<point x="975" y="-298"/>
			<point x="995" y="-278"/>
			<point x="995" y="-254" type="curve" smooth="yes"/>
			<point x="995" y="-230"/>
			<point x="975" y="-210"/>
			<point x="951" y="-210" type="curve" smooth="yes"/>
			<point x="633" y="-210" type="line"/>
			<point x="679" y="4" type="line"/>
			<point x="978" y="4" type="line" smooth="yes"/>
			<point x="1002" y="4"/>
			<point x="1022" y="23"/>
			<point x="1022" y="48" type="curve" smooth="yes"/>
			<point x="1022" y="72"/>
			<point x="1002" y="91"/>
			<point x="978" y="91" type="curve" smooth="yes"/>
			<point x="697" y="91" type="line"/>
			<point x="743" y="305" type="line"/>
			<point x="1070" y="305" type="line" smooth="yes"/>
			<point x="1094" y="305"/>
			<point x="1114" y="324"/>
			<point x="1114" y="349" type="curve" smooth="yes"/>
			<point x="1114" y="373"/>
			<point x="1094" y="392"/>
			<point x="1070" y="392" type="curve" smooth="yes"/>
			<point x="759" y="392" type="line"/>
			<point x="804" y="603" type="line"/>
			<point x="1015" y="603" type="line" smooth="yes"/>
			<point x="1039" y="603"/>
			<point x="1059" y="622"/>
			<point x="1059" y="646" type="curve" smooth="yes"/>
			<point x="1059" y="671"/>
			<point x="1039" y="690"/>
			<point x="1015" y="690" type="curve" smooth="yes"/>
			<point x="149" y="690" type="line" smooth="yes"/>
			<point x="125" y="690"/>
			<point x="105" y="671"/>
			<point x="105" y="647" type="curve" smooth="yes"/>
			<point x="105" y="622"/>
			<point x="125" y="603"/>
			<point x="149" y="603" type="curve" smooth="yes"/>
			<point x="342" y="603" type="line"/>
			<point x="226" y="59" type="line" smooth="yes"/>
			<point x="219" y="25"/>
			<point x="245" y="-5"/>
			<point x="279" y="-5" type="curve" smooth="yes"/>
			<point x="304" y="-5"/>
			<point x="326" y="12"/>
			<point x="331" y="37" type="curve" smooth="yes"/>
		</contour>
	</outline>
	<lib>
		<dict>
			<key>com.schriftgestaltung.Glyphs.leftMetricsKey</key>
			<string>T</string>
			<key>com.schriftgestaltung.Glyphs.rightMetricsKey</key>
			<string>E</string>
		</dict>
	</lib>
</glyph>
