<?xml version="1.0" encoding="UTF-8"?>
<glyph name="Ccaron" format="2">
	<advance width="691"/>
	<unicode hex="010C"/>
	<note>
		Ccaron
	</note>
	<outline>
		<contour>
			<point x="270" y="830" type="line"/>
			<point x="336" y="736" type="line"/>
			<point x="381" y="736" type="line"/>
			<point x="448" y="830" type="line"/>
			<point x="398" y="830" type="line"/>
			<point x="359" y="764" type="line"/>
			<point x="320" y="830" type="line"/>
		</contour>
		<contour>
			<point x="641" y="229" type="line"/>
			<point x="579" y="229" type="line"/>
			<point x="577" y="219" type="line" smooth="yes"/>
			<point x="556" y="113"/>
			<point x="488" y="36"/>
			<point x="360" y="36" type="curve" smooth="yes"/>
			<point x="220" y="36"/>
			<point x="118" y="153"/>
			<point x="118" y="345" type="curve" smooth="yes"/>
			<point x="118" y="533"/>
			<point x="225" y="654"/>
			<point x="367" y="654" type="curve" smooth="yes"/>
			<point x="490" y="654"/>
			<point x="559" y="580"/>
			<point x="580" y="475" type="curve" smooth="yes"/>
			<point x="582" y="465" type="line"/>
			<point x="644" y="465" type="line"/>
			<point x="643" y="475" type="line" smooth="yes"/>
			<point x="625" y="606"/>
			<point x="536" y="704"/>
			<point x="370" y="704" type="curve" smooth="yes"/>
			<point x="181" y="704"/>
			<point x="49" y="554"/>
			<point x="49" y="342" type="curve" smooth="yes"/>
			<point x="49" y="132"/>
			<point x="167" y="-14"/>
			<point x="356" y="-14" type="curve" smooth="yes"/>
			<point x="532" y="-14"/>
			<point x="622" y="92"/>
			<point x="640" y="219" type="curve" smooth="yes"/>
		</contour>
	</outline>
</glyph>
