<?xml version="1.0" encoding="UTF-8"?>
<glyph name="two" format="2">
	<advance width="561"/>
	<unicode hex="0032"/>
	<note>
		two
	</note>
	<outline>
		<contour>
			<point x="507" y="52" type="line"/>
			<point x="144" y="52" type="line"/>
			<point x="336" y="240" type="line" smooth="yes"/>
			<point x="453" y="354"/>
			<point x="507" y="423"/>
			<point x="507" y="515" type="curve" smooth="yes"/>
			<point x="507" y="618"/>
			<point x="440" y="704"/>
			<point x="304" y="704" type="curve" smooth="yes"/>
			<point x="175" y="704"/>
			<point x="89" y="626"/>
			<point x="75" y="489" type="curve" smooth="yes"/>
			<point x="74" y="479" type="line"/>
			<point x="136" y="479" type="line"/>
			<point x="137" y="489" type="line" smooth="yes"/>
			<point x="148" y="592"/>
			<point x="203" y="654"/>
			<point x="297" y="654" type="curve" smooth="yes"/>
			<point x="390" y="654"/>
			<point x="438" y="588"/>
			<point x="438" y="509" type="curve" smooth="yes"/>
			<point x="438" y="437"/>
			<point x="399" y="384"/>
			<point x="298" y="283" type="curve" smooth="yes"/>
			<point x="53" y="37" type="line"/>
			<point x="53" y="0" type="line"/>
			<point x="507" y="0" type="line"/>
		</contour>
	</outline>
</glyph>
