<?xml version="1.0" encoding="UTF-8"?>
<glyph name="Ugrave" format="2">
	<advance width="651"/>
	<unicode hex="00D9"/>
	<note>
		Ugrave
	</note>
	<outline>
		<contour>
			<point x="319" y="736" type="line"/>
			<point x="361" y="736" type="line"/>
			<point x="308" y="830" type="line"/>
			<point x="247" y="830" type="line"/>
		</contour>
		<contour>
			<point x="583" y="247" type="curve" smooth="yes"/>
			<point x="583" y="690" type="line"/>
			<point x="521" y="690" type="line"/>
			<point x="521" y="250" type="line" smooth="yes"/>
			<point x="521" y="228"/>
			<point x="520" y="208"/>
			<point x="518" y="189" type="curve" smooth="yes"/>
			<point x="510" y="102"/>
			<point x="453" y="36"/>
			<point x="338" y="36" type="curve" smooth="yes"/>
			<point x="222" y="36"/>
			<point x="165" y="102"/>
			<point x="157" y="189" type="curve" smooth="yes"/>
			<point x="155" y="208"/>
			<point x="155" y="228"/>
			<point x="155" y="250" type="curve" smooth="yes"/>
			<point x="155" y="690" type="line"/>
			<point x="93" y="690" type="line"/>
			<point x="93" y="247" type="line" smooth="yes"/>
			<point x="93" y="227"/>
			<point x="93" y="207"/>
			<point x="95" y="183" type="curve" smooth="yes"/>
			<point x="104" y="71"/>
			<point x="180" y="-14"/>
			<point x="338" y="-14" type="curve" smooth="yes"/>
			<point x="495" y="-14"/>
			<point x="572" y="71"/>
			<point x="580" y="183" type="curve" smooth="yes"/>
			<point x="582" y="207"/>
			<point x="583" y="227"/>
		</contour>
	</outline>
</glyph>
