<?xml version="1.0" encoding="UTF-8"?>
<glyph name="Abreve" format="2">
	<advance width="656"/>
	<unicode hex="0102"/>
	<note>
		Abreve
	</note>
	<outline>
		<contour>
			<point x="440" y="724" type="curve" smooth="yes"/>
			<point x="511" y="724"/>
			<point x="557" y="761"/>
			<point x="574" y="838" type="curve"/>
			<point x="512" y="838" type="line"/>
			<point x="503" y="803"/>
			<point x="482" y="786"/>
			<point x="453" y="786" type="curve" smooth="yes"/>
			<point x="424" y="786"/>
			<point x="409" y="803"/>
			<point x="416" y="838" type="curve"/>
			<point x="354" y="838" type="line"/>
			<point x="337" y="761"/>
			<point x="368" y="724"/>
		</contour>
		<contour>
			<point x="207" y="228" type="line"/>
			<point x="452" y="228" type="line"/>
			<point x="479" y="0" type="line"/>
			<point x="598" y="0" type="line"/>
			<point x="503" y="690" type="line"/>
			<point x="361" y="690" type="line"/>
			<point x="-33" y="0" type="line"/>
			<point x="84" y="0" type="line"/>
		</contour>
		<contour>
			<point x="442" y="315" type="line"/>
			<point x="255" y="315" type="line"/>
			<point x="411" y="599" type="line"/>
		</contour>
	</outline>
</glyph>
