<?xml version="1.0" encoding="UTF-8"?>
<glyph name="uni013B" format="2">
	<advance width="588"/>
	<unicode hex="013B"/>
	<note>
		Lcommaaccent
	</note>
	<outline>
		<contour>
			<point x="516" y="0" type="line"/>
			<point x="535" y="91" type="line"/>
			<point x="168" y="91" type="line"/>
			<point x="295" y="690" type="line"/>
			<point x="185" y="690" type="line"/>
			<point x="39" y="0" type="line"/>
		</contour>
		<contour>
			<point x="317" y="-48" type="line"/>
			<point x="236" y="-48" type="line"/>
			<point x="144" y="-200" type="line"/>
			<point x="214" y="-200" type="line"/>
			<point x="315" y="-59" type="line"/>
		</contour>
	</outline>
</glyph>
