<?xml version="1.0" encoding="UTF-8"?>
<glyph name="Aring" format="2">
	<advance width="707"/>
	<unicode hex="00C5"/>
	<note>
		Aring
	</note>
	<outline>
		<contour>
			<point x="460" y="722" type="curve" smooth="yes"/>
			<point x="530" y="722"/>
			<point x="588" y="765"/>
			<point x="601" y="827" type="curve" smooth="yes"/>
			<point x="615" y="889"/>
			<point x="575" y="932"/>
			<point x="505" y="932" type="curve" smooth="yes"/>
			<point x="435" y="932"/>
			<point x="377" y="889"/>
			<point x="363" y="827" type="curve" smooth="yes"/>
			<point x="350" y="765"/>
			<point x="390" y="722"/>
		</contour>
		<contour>
			<point x="491" y="866" type="curve" smooth="yes"/>
			<point x="512" y="866"/>
			<point x="523" y="850"/>
			<point x="518" y="827" type="curve" smooth="yes"/>
			<point x="514" y="804"/>
			<point x="495" y="788"/>
			<point x="474" y="788" type="curve" smooth="yes"/>
			<point x="453" y="788"/>
			<point x="442" y="804"/>
			<point x="446" y="827" type="curve" smooth="yes"/>
			<point x="451" y="850"/>
			<point x="470" y="866"/>
		</contour>
		<contour>
			<point x="235" y="179" type="line"/>
			<point x="450" y="179" type="line"/>
			<point x="470" y="0" type="line"/>
			<point x="666" y="0" type="line"/>
			<point x="563" y="690" type="line"/>
			<point x="343" y="690" type="line"/>
			<point x="-52" y="0" type="line"/>
			<point x="139" y="0" type="line"/>
		</contour>
		<contour>
			<point x="308" y="319" type="line"/>
			<point x="418" y="531" type="line"/>
			<point x="436" y="319" type="line"/>
		</contour>
	</outline>
</glyph>
