<?xml version="1.0" encoding="UTF-8"?>
<glyph name="daggerdbl" format="2">
	<advance width="570"/>
	<unicode hex="2021"/>
	<note>
		daggerdbl
	</note>
	<outline>
		<contour>
			<point x="338" y="188" type="line"/>
			<point x="370" y="342" type="line"/>
			<point x="550" y="338" type="line"/>
			<point x="581" y="488" type="line"/>
			<point x="403" y="484" type="line"/>
			<point x="456" y="690" type="line"/>
			<point x="294" y="690" type="line"/>
			<point x="261" y="484" type="line"/>
			<point x="83" y="488" type="line"/>
			<point x="52" y="338" type="line"/>
			<point x="232" y="342" type="line"/>
			<point x="200" y="188" type="line"/>
			<point x="20" y="192" type="line"/>
			<point x="-11" y="42" type="line"/>
			<point x="167" y="46" type="line"/>
			<point x="114" y="-160" type="line"/>
			<point x="276" y="-160" type="line"/>
			<point x="309" y="46" type="line"/>
			<point x="487" y="42" type="line"/>
			<point x="518" y="192" type="line"/>
		</contour>
	</outline>
</glyph>
