<?xml version="1.0" encoding="UTF-8"?>
<glyph name="periodcentered" format="2">
	<advance width="280"/>
	<unicode hex="00B7"/>
	<note>
		periodcentered
	</note>
	<outline>
		<contour>
			<point x="72" y="405" type="line"/>
			<point x="29" y="203" type="line"/>
			<point x="229" y="203" type="line"/>
			<point x="272" y="405" type="line"/>
		</contour>
	</outline>
</glyph>
