<?xml version="1.0" encoding="UTF-8"?>
<glyph name="uF3210" format="2">
	<advance width="838"/>
	<unicode hex="F3210"/>
	<outline>
		<contour>
			<point x="95" y="0" type="line"/>
			<point x="810" y="0" type="line"/>
			<point x="809" y="92" type="line"/>
			<point x="443" y="92" type="line"/>
			<point x="443" y="302" type="line"/>
			<point x="772" y="302" type="line"/>
			<point x="772" y="389" type="line"/>
			<point x="443" y="389" type="line"/>
			<point x="443" y="603" type="line"/>
			<point x="800" y="603" type="line"/>
			<point x="800" y="690" type="line"/>
			<point x="333" y="690" type="line"/>
			<point x="333" y="91" type="line"/>
			<point x="205" y="91" type="line"/>
			<point x="205" y="690" type="line"/>
			<point x="95" y="690" type="line"/>
		</contour>
	</outline>
	<lib>
		<dict>
			<key>com.schriftgestaltung.Glyphs.leftMetricsKey</key>
			<string>L</string>
			<key>com.schriftgestaltung.Glyphs.rightMetricsKey</key>
			<string>E</string>
		</dict>
	</lib>
</glyph>
